Customer Churn Problem
…
# Format test data and predictions for yardstick metrics
# estimates_keras_tbl <- tibble(
#   truth      = as.factor(y_test_vec) %>% fct_recode(yes = "1", no = "0"),
#   estimate   = as.factor(yhat_keras_class_vec) %>% fct_recode(yes = "1", no = "0"),
#   class_prob = yhat_keras_prob_vec
# )
estimates_keras_tbl <- tibble(
  truth      = as.factor(y_test_vec) %>% fct_recode(yes = "1", no = "0"),
  estimate   = as.factor(yhat_keras_class_vec) %>% fct_recode(yes = "TRUE", no = "FALSE"),
  class_prob = yhat_keras_prob_vec
)
options(yardstick.event_first = FALSE) # the default is to classify 0 as the positive class instead of 1
estimates_keras_tbl

## # A tibble: 1,407 x 3
##    truth estimate class_prob
##    <fct> <fct>         <dbl>
##  1 yes   yes          0.648 
##  2 no    no           0.475 
##  3 no    no           0.0124
##  4 no    no           0.0800
##  5 no    no           0.0223
##  6 yes   no           0.336 
##  7 no    no           0.472 
##  8 yes   yes          0.631 
##  9 no    yes          0.513 
## 10 no    no           0.156 
## # ... with 1,397 more rows
…
# Format test data and predictions for yardstick metrics
# estimates_keras_tbl <- tibble(
#   truth      = as.factor(y_test_vec) %>% fct_recode(yes = "1", no = "0"),
#   estimate   = as.factor(yhat_keras_class_vec) %>% fct_recode(yes = "1", no = "0"),
#   class_prob = yhat_keras_prob_vec
# )
estimates_keras_tbl_1 <- tibble(
  truth      = as.factor(y_test_vec_1) %>% fct_recode(yes = "1", no = "0"),
  estimate   = as.factor(yhat_keras_class_vec_1) %>% fct_recode(yes = "TRUE", no = "FALSE"),
  class_prob = yhat_keras_prob_vec_1
)
options(yardstick.event_first = FALSE) # the default is to classify 0 as the positive class instead of 1
estimates_keras_tbl_1

## # A tibble: 915 x 3
##    truth estimate class_prob
##    <fct> <fct>         <dbl>
##  1 yes   yes         0.719  
##  2 no    no          0.173  
##  3 no    no          0.201  
##  4 no    no          0.319  
##  5 no    no          0.00713
##  6 no    no          0.134  
##  7 no    no          0.00798
##  8 no    yes         0.658  
##  9 no    no          0.0250 
## 10 no    no          0.0478 
## # ... with 905 more rows
…
# Format test data and predictions for yardstick metrics
# estimates_keras_tbl <- tibble(
#   truth      = as.factor(y_test_vec) %>% fct_recode(yes = "1", no = "0"),
#   estimate   = as.factor(yhat_keras_class_vec) %>% fct_recode(yes = "1", no = "0"),
#   class_prob = yhat_keras_prob_vec
# )
estimates_keras_tbl_2 <- tibble(
  truth      = as.factor(y_test_vec_2) %>% fct_recode(yes = "1", no = "0"),
  estimate   = as.factor(yhat_keras_class_vec_2) %>% fct_recode(yes = "TRUE", no = "FALSE"),
  class_prob = yhat_keras_prob_vec_2
)
options(yardstick.event_first = FALSE) # the default is to classify 0 as the positive class instead of 1
estimates_keras_tbl_2

## # A tibble: 1,407 x 3
##    truth estimate class_prob
##    <fct> <fct>         <dbl>
##  1 yes   yes         0.531  
##  2 no    no          0.0359 
##  3 no    no          0.00318
##  4 no    no          0.425  
##  5 no    no          0.00304
##  6 yes   no          0.446  
##  7 no    no          0.0108 
##  8 no    no          0.0194 
##  9 yes   yes         0.634  
## 10 no    no          0.200  
## # ... with 1,397 more rows
…
# Format test data and predictions for yardstick metrics
# estimates_keras_tbl <- tibble(
#   truth      = as.factor(y_test_vec) %>% fct_recode(yes = "1", no = "0"),
#   estimate   = as.factor(yhat_keras_class_vec) %>% fct_recode(yes = "1", no = "0"),
#   class_prob = yhat_keras_prob_vec
# )
estimates_keras_tbl_3 <- tibble(
  truth      = as.factor(y_test_vec_3) %>% fct_recode(yes = "1", no = "0"),
  estimate   = as.factor(yhat_keras_class_vec_3) %>% fct_recode(yes = "TRUE", no = "FALSE"),
  class_prob = yhat_keras_prob_vec_3
)
options(yardstick.event_first = FALSE) # the default is to classify 0 as the positive class instead of 1
estimates_keras_tbl_3

## # A tibble: 1,407 x 3
##    truth estimate class_prob
##    <fct> <fct>         <dbl>
##  1 yes   no          0.464  
##  2 no    no          0.0237 
##  3 no    no          0.00233
##  4 no    no          0.388  
##  5 no    no          0.00609
##  6 yes   no          0.436  
##  7 no    no          0.0105 
##  8 no    no          0.0169 
##  9 yes   yes         0.607  
## 10 no    no          0.328  
## # ... with 1,397 more rows
…
# Format test data and predictions for yardstick metrics
# estimates_keras_tbl <- tibble(
#   truth      = as.factor(y_test_vec) %>% fct_recode(yes = "1", no = "0"),
#   estimate   = as.factor(yhat_keras_class_vec) %>% fct_recode(yes = "1", no = "0"),
#   class_prob = yhat_keras_prob_vec
# )
estimates_keras_tbl_6 <- tibble(
  truth      = as.factor(y_test_vec_6) %>% fct_recode(yes = "1", no = "0"),
  estimate   = as.factor(yhat_keras_class_vec_6) %>% fct_recode(yes = "TRUE", no = "FALSE"),
  class_prob = yhat_keras_prob_vec_6
)
options(yardstick.event_first = FALSE) # the default is to classify 0 as the positive class instead of 1
estimates_keras_tbl_6

## # A tibble: 1,407 x 3
##    truth estimate class_prob
##    <fct> <fct>         <dbl>
##  1 yes   yes          0.830 
##  2 no    no           0.455 
##  3 no    no           0.0395
##  4 no    no           0.106 
##  5 no    no           0.0211
##  6 yes   no           0.413 
##  7 no    no           0.397 
##  8 yes   yes          0.808 
##  9 no    yes          0.521 
## 10 no    no           0.143 
## # ... with 1,397 more rows
…
